{
    "content": {
        "I/O Mappings": [
            {
                "content": {
                    "locScale": 512,
                    "simdev": "disk0",
                    "sizeScale": 1,
                    "tracedev": 14
                },
                "type": "disksim_iomap"
            },
            {
                "content": {
                    "locScale": 512,
                    "simdev": "disk1",
                    "sizeScale": 1,
                    "tracedev": 18
                },
                "type": "disksim_iomap"
            },
            {
                "content": {
                    "locScale": 512,
                    "simdev": "disk2",
                    "sizeScale": 1,
                    "tracedev": 10
                },
                "type": "disksim_iomap"
            },
            {
                "content": {
                    "locScale": 512,
                    "simdev": "disk3",
                    "sizeScale": 1,
                    "tracedev": 11
                },
                "type": "disksim_iomap"
            },
            {
                "content": {
                    "locScale": 512,
                    "simdev": "disk4",
                    "sizeScale": 1,
                    "tracedev": 20
                },
                "type": "disksim_iomap"
            },
            {
                "content": {
                    "locScale": 512,
                    "simdev": "disk5",
                    "sizeScale": 1,
                    "tracedev": 0
                },
                "type": "disksim_iomap"
            },
            {
                "content": {
                    "locScale": 512,
                    "simdev": "disk6",
                    "sizeScale": 1,
                    "tracedev": 16
                },
                "type": "disksim_iomap"
            },
            {
                "content": {
                    "locScale": 512,
                    "simdev": "disk7",
                    "sizeScale": 1,
                    "tracedev": 30
                },
                "type": "disksim_iomap"
            },
            {
                "content": {
                    "locScale": 512,
                    "simdev": "disk8",
                    "sizeScale": 1,
                    "tracedev": 17
                },
                "type": "disksim_iomap"
            },
            {
                "content": {
                    "locScale": 512,
                    "simdev": "disk9",
                    "sizeScale": 1,
                    "tracedev": 5
                },
                "type": "disksim_iomap"
            },
            {
                "content": {
                    "locScale": 512,
                    "simdev": "disk10",
                    "sizeScale": 1,
                    "tracedev": 7
                },
                "type": "disksim_iomap"
            },
            {
                "content": {
                    "locScale": 512,
                    "simdev": "disk11",
                    "sizeScale": 1,
                    "tracedev": 101
                },
                "type": "disksim_iomap"
            },
            {
                "content": {
                    "locScale": 512,
                    "simdev": "disk12",
                    "sizeScale": 1,
                    "tracedev": 6
                },
                "type": "disksim_iomap"
            },
            {
                "content": {
                    "locScale": 512,
                    "simdev": "disk13",
                    "sizeScale": 1,
                    "tracedev": 3
                },
                "type": "disksim_iomap"
            },
            {
                "content": {
                    "locScale": 512,
                    "simdev": "disk14",
                    "sizeScale": 1,
                    "tracedev": 4
                },
                "type": "disksim_iomap"
            },
            {
                "content": {
                    "locScale": 512,
                    "simdev": "disk15",
                    "sizeScale": 1,
                    "tracedev": 103
                },
                "type": "disksim_iomap"
            },
            {
                "content": {
                    "locScale": 512,
                    "simdev": "disk16",
                    "sizeScale": 1,
                    "tracedev": 1
                },
                "type": "disksim_iomap"
            },
            {
                "content": {
                    "locScale": 512,
                    "simdev": "disk17",
                    "sizeScale": 1,
                    "tracedev": 2
                },
                "type": "disksim_iomap"
            }
        ],
        "I/O Trace Time Scale": 1.0
    },
    "type": "disksim_iosim"
}
